{
  "count" : 1154,
  "next" :  "https://pokeapi.co/api/v2/pokemon?offset=20&limit=20",
  "previous": null,
  "results" : [
    {
      "name": "bulbasaur",
      "url": "https://pokeapi.co/api/v2/pokemon/1/",
      "sprites": {
        "back_default": "https://raw.githubusercontent.com/PokeAPI/sprites/master/sprites/pokemon/back/1.png",
        "front_default": "https://raw.githubusercontent.com/PokeAPI/sprites/master/sprites/pokemon/1.png"
      }
    },
    {
      "name": "ivysaur",
      "url": "https://pokeapi.co/api/v2/pokemon/2/",
      "sprites": {
        "back_default": "https://raw.githubusercontent.com/PokeAPI/sprites/master/sprites/pokemon/back/2.png",
        "front_default": "https://raw.githubusercontent.com/PokeAPI/sprites/master/sprites/pokemon/2.png"
      }
    },
    {
      "name": "venusaur",
      "url": "https://pokeapi.co/api/v2/pokemon/3/",
      "sprites": {
        "back_default": "https://raw.githubusercontent.com/PokeAPI/sprites/master/sprites/pokemon/back/3.png",
        "front_default": "https://raw.githubusercontent.com/PokeAPI/sprites/master/sprites/pokemon/3.png"
      }
    },
    {
      "name": "charmander",
      "url": "https://pokeapi.co/api/v2/pokemon/4/",
      "sprites": {
        "back_default": "https://raw.githubusercontent.com/PokeAPI/sprites/master/sprites/pokemon/back/4.png",
        "front_default": "https://raw.githubusercontent.com/PokeAPI/sprites/master/sprites/pokemon/4.png"
      }
    },
    {
      "name": "charmeleon",
      "url": "https://pokeapi.co/api/v2/pokemon/5/",
      "sprites": {
        "back_default": "https://raw.githubusercontent.com/PokeAPI/sprites/master/sprites/pokemon/back/5.png",
        "front_default": "https://raw.githubusercontent.com/PokeAPI/sprites/master/sprites/pokemon/5.png"
      }
    },
    {
      "name": "charizard",
      "url": "https://pokeapi.co/api/v2/pokemon/6/",
      "sprites": {
        "back_default": "https://raw.githubusercontent.com/PokeAPI/sprites/master/sprites/pokemon/back/6.png",
        "front_default": "https://raw.githubusercontent.com/PokeAPI/sprites/master/sprites/pokemon/6.png"
      }
    },
    {
      "name": "squirtle",
      "url": "https://pokeapi.co/api/v2/pokemon/7/",
      "sprites": {
        "back_default": "https://raw.githubusercontent.com/PokeAPI/sprites/master/sprites/pokemon/back/7.png",
        "front_default": "https://raw.githubusercontent.com/PokeAPI/sprites/master/sprites/pokemon/7.png"
      }
    },
    {
      "name": "wartortle",
      "url": "https://pokeapi.co/api/v2/pokemon/8/",
      "sprites": {
        "back_default": "https://raw.githubusercontent.com/PokeAPI/sprites/master/sprites/pokemon/back/8.png",
        "front_default": "https://raw.githubusercontent.com/PokeAPI/sprites/master/sprites/pokemon/8.png"
      }
    },
    {
      "name": "blastoise",
      "url": "https://pokeapi.co/api/v2/pokemon/9/",
      "sprites": {
        "back_default": "https://raw.githubusercontent.com/PokeAPI/sprites/master/sprites/pokemon/back/9.png",
        "front_default": "https://raw.githubusercontent.com/PokeAPI/sprites/master/sprites/pokemon/9.png"
      }
    }
  ]
}